<?xml version="1.0" encoding="UTF-8" standalone="no"?>
<!DOCTYPE svg PUBLIC "-//W3C//DTD SVG 1.1//EN" "http://www.w3.org/Graphics/SVG/1.1/DTD/svg11.dtd">
<svg width="100%" height="100%" viewBox="0 0 1080 1080" version="1.1" xmlns="http://www.w3.org/2000/svg" xmlns:xlink="http://www.w3.org/1999/xlink" xml:space="preserve" xmlns:serif="http://www.serif.com/" style="fill-rule:evenodd;clip-rule:evenodd;stroke-linejoin:round;stroke-miterlimit:2;">
    <g transform="matrix(1.21678,0,0,1.21678,-65.5524,-219.747)">
        <circle cx="497.669" cy="624.392" r="443.795"/>
    </g>
    <g transform="matrix(1.4569,0,0,1.4569,28.0595,118.95)">
        <path d="M302.502,152.204C299.43,163.724 296.262,175.628 292.998,187.916C289.734,200.204 287.142,213.932 285.222,229.1C283.302,244.268 282.342,262.604 282.342,284.108C282.342,312.524 284.166,335.468 287.814,352.94C291.462,370.412 296.07,383.948 301.638,393.548C307.206,403.148 313.158,410.06 319.494,414.284C325.83,418.508 331.686,421.772 337.062,424.076C347.43,427.916 360.678,430.124 376.806,430.7C392.934,431.276 407.334,431.18 420.006,430.412C420.774,426.572 421.446,420.716 422.022,412.844C422.598,404.972 423.078,396.332 423.462,386.924C423.846,377.516 424.134,368.588 424.326,360.14C424.518,351.692 424.614,345.356 424.614,341.132L379.11,330.188L384.87,291.02C394.47,291.788 404.934,292.94 416.262,294.476C427.59,296.012 437.766,297.932 446.79,300.236C455.814,302.54 461.286,305.228 463.206,308.3C463.59,313.292 463.878,320.492 464.07,329.9C464.262,339.308 464.262,349.58 464.07,360.716C463.878,371.852 463.494,382.796 462.918,393.548C462.342,404.3 461.766,413.708 461.19,421.772C460.614,429.836 459.942,435.02 459.174,437.324C456.486,439.244 452.358,441.452 446.79,443.948C441.222,446.444 434.886,449.036 427.782,451.724C420.678,454.412 413.574,456.908 406.47,459.212C399.366,461.516 392.742,463.34 386.598,464.684C380.454,466.028 375.846,466.7 372.774,466.7C365.862,466.7 357.702,465.836 348.294,464.108C338.886,462.38 329.19,459.788 319.206,456.332C309.222,452.876 299.814,448.556 290.982,443.372C282.15,438.188 275.238,432.332 270.246,425.804C264.102,417.356 258.63,407.372 253.83,395.852C249.03,384.332 245.286,370.796 242.598,355.244C239.91,339.692 238.566,321.74 238.566,301.388C238.566,276.044 240.198,252.908 243.462,231.98C246.726,211.052 251.238,193.868 256.998,180.428C261.222,174.284 266.214,168.044 271.974,161.708C277.734,155.372 283.878,149.132 290.406,142.988L302.502,152.204ZM327.27,427.532L327.27,160.844C327.27,157.004 328.518,150.956 331.014,142.7C333.51,134.444 336.486,125.516 339.942,115.916L352.614,115.916L352.614,399.308C352.614,401.612 351.75,405.164 350.022,409.964C348.294,414.764 345.702,420.62 342.246,427.532L327.27,427.532ZM453.414,209.228L428.646,209.228L422.886,149.9C418.662,149.132 412.23,148.172 403.59,147.02C394.95,145.868 386.406,144.812 377.958,143.852C369.51,142.892 362.79,142.412 357.798,142.412C354.342,142.412 350.982,142.7 347.718,143.276C344.454,143.852 341.286,144.716 338.214,145.868L339.942,115.916C343.014,114.38 345.798,113.228 348.294,112.46C350.79,111.692 352.998,111.308 354.918,111.308C358.758,111.308 364.902,111.5 373.35,111.884C381.798,112.268 391.206,112.844 401.574,113.612C411.942,114.38 422.31,115.148 432.678,115.916C443.046,116.684 451.878,117.452 459.174,118.22L453.414,209.228Z" style="fill:white;fill-rule:nonzero;"/>
    </g>
</svg>
